ASYNC_FIFO/sim.vcd
$date
	Wed Apr 19 16:42:24 2023
$end
$version
	Icarus Verilog
$end
$timescale
	1ps
$end
$scope module async_fifo $end
$var wire 1 ! arst_n $end
$var wire 8 " data_in [7:0] $end
$var wire 1 # r_en $end
$var wire 1 $ rclk $end
$var wire 1 % w_en $end
$var wire 1 & wclk $end
$var wire 9 ' wrt_ptr [8:0] $end
$var wire 1 ( wr_srstn $end
$var wire 9 ) read_ptr [8:0] $end
$var wire 1 * rd_srstn $end
$var wire 1 + full $end
$var wire 1 , empt $end
$var wire 8 - data_out [7:0] $end
$scope module async_bram $end
$var wire 8 . data_in [7:0] $end
$var wire 1 $ rd_clk $end
$var wire 1 # rd_en $end
$var wire 1 & wr_clk $end
$var wire 1 % wr_en $end
$var wire 9 / wrt_ptr [8:0] $end
$var wire 9 0 read_ptr [8:0] $end
$var reg 8 1 data_out [7:0] $end
$upscope $end
$scope module empt_gen $end
$var wire 9 2 wr_pointer [8:0] $end
$var wire 9 3 rd_pointer [8:0] $end
$var wire 1 + full $end
$var wire 1 , empty $end
$upscope $end
$scope module rd_pointer $end
$var wire 1 , empty $end
$var wire 1 $ rclk $end
$var wire 1 # rd_en $end
$var wire 1 4 rd_ready $end
$var wire 1 * rd_srstn $end
$var reg 9 5 read_ptr [8:0] $end
$upscope $end
$scope module rd_rst_scnch_m $end
$var wire 1 & clk $end
$var wire 1 ! n_asignal $end
$var reg 1 * n_ssignal $end
$var reg 1 6 toggle $end
$upscope $end
$scope module wr_pointer $end
$var wire 1 7 full $end
$var wire 1 & wclk $end
$var wire 1 # wr_en $end
$var wire 1 8 wr_ready $end
$var wire 1 ( wr_srstn $end
$var reg 9 9 wrt_ptr [8:0] $end
$upscope $end
$scope module wr_rst_scnch_m $end
$var wire 1 & clk $end
$var wire 1 ! n_asignal $end
$var reg 1 ( n_ssignal $end
$var reg 1 : toggle $end
$upscope $end
$upscope $end
$enddefinitions $end
#0
$dumpvars
1:
bx 9
x8
x7
16
b0 5
x4
b0 3
bx 2
bx 1
b0 0
bx /
bz .
bx -
x,
x+
1*
b0 )
1(
bx '
1&
z%
1$
z#
bz "
1!
$end
#1000
0&
#2000
1&
#3000
0&
0$
#4000
1&
#5000
0&
#6000
1&
1$
#7000
0&
#8000
1&
#9000
0&
0$
#10000
1&
#11000
0&
#12000
1&
1$
#13000
0&
#14000
1&
#15000
0&
0$
#16000
1&
#17000
0&
#18000
1&
1$
#19000
0&
#20000
1&
#21000
0&
0$
#22000
1&
#23000
0&
#24000
1&
1$
#25000
0&
#26000
1&
#27000
0&
0$
#28000
1&
#29000
0&
#30000
1&
1$
#31000
0&
#32000
1&
#33000
0&
0$
#34000
1&
#35000
0&
#36000
1&
1$
#37000
0&
#38000
1&
#39000
0&
0$
#40000
1&
#41000
0&
#42000
1&
1$
#43000
0&
#44000
1&
#45000
0&
0$
#46000
1&
#47000
0&
#48000
1&
1$
#49000
0&
#50000
0:
06
1&
0!
#51000
0&
0$
#52000
04
08
0*
0(
1&
#53000
0&
#54000
07
0+
1,
b0 '
b0 /
b0 2
b0 9
1&
1$
#55000
0&
#56000
1&
#57000
0&
0$
#58000
1&
#59000
0&
#60000
1&
1$
#61000
0&
#62000
1&
#63000
0&
0$
#64000
1&
#65000
0&
#66000
1&
1$
#67000
0&
#68000
1&
#69000
0&
0$
#70000
1&
#71000
0&
#72000
1&
1$
#73000
0&
#74000
1&
#75000
0&
0$
#76000
1&
#77000
0&
#78000
1&
1$
#79000
0&
#80000
16
1:
1&
b111011 "
b111011 .
1%
1!
#81000
0&
0$
#82000
b10111011 "
b10111011 .
x8
1(
1*
1&
#83000
0&
#84000
b11010010 "
b11010010 .
1&
1$
#85000
0&
#86000
b11001111 "
b11001111 .
1&
#87000
0&
0$
#88000
b10010010 "
b10010010 .
1&
#89000
0&
#90000
0%
1&
1$
