ASYNC_FIFO/sim.vcd
$date
	Wed May 17 16:06:51 2023
$end
$version
	Icarus Verilog
$end
$timescale
	1ps
$end
$scope module async_fifo $end
$var wire 1 ! arst_n $end
$var wire 8 " data_in [7:0] $end
$var wire 1 # full $end
$var wire 1 $ r_en $end
$var wire 1 % rclk $end
$var wire 1 & w_en $end
$var wire 1 ' wclk $end
$var wire 4 ( wrt_ptr [3:0] $end
$var wire 1 ) wr_srstn $end
$var wire 4 * read_ptr [3:0] $end
$var wire 1 + rd_srstn $end
$var wire 1 , full_gen $end
$var wire 1 - empt $end
$var wire 8 . data_out [7:0] $end
$scope module async_bram $end
$var wire 8 / data_in [7:0] $end
$var wire 1 # full $end
$var wire 1 % rd_clk $end
$var wire 1 $ rd_en $end
$var wire 1 ' wr_clk $end
$var wire 1 & wr_en $end
$var wire 4 0 wrt_ptr [3:0] $end
$var wire 1 ) wr_srstn $end
$var wire 3 1 w_ptr [2:0] $end
$var wire 4 2 read_ptr [3:0] $end
$var wire 3 3 r_ptr [2:0] $end
$var wire 8 4 data_out [7:0] $end
$scope begin $ivl_for_loop2 $end
$var integer 32 5 i [31:0] $end
$upscope $end
$upscope $end
$scope module empt_gen $end
$var wire 4 6 wr_pointer [3:0] $end
$var wire 4 7 rd_pointer [3:0] $end
$var wire 1 , full $end
$var wire 1 - empty $end
$upscope $end
$scope module rd_pointer $end
$var wire 1 - empty $end
$var wire 1 % rclk $end
$var wire 1 $ rd_en $end
$var wire 1 8 rd_ready $end
$var wire 1 + rd_srstn $end
$var reg 4 9 read_ptr [3:0] $end
$upscope $end
$scope module rd_rst_scnch_m $end
$var wire 1 % clk $end
$var wire 1 ! n_as_signal $end
$var reg 1 : hold $end
$var reg 1 + n_s_signal $end
$upscope $end
$scope module wr_pointer $end
$var wire 1 # full $end
$var wire 1 ' wclk $end
$var wire 1 & wr_en $end
$var wire 1 ; wr_ready $end
$var wire 1 ) wr_srstn $end
$var reg 4 < wrt_ptr [3:0] $end
$upscope $end
$scope module wr_rst_scnch_m $end
$var wire 1 ' clk $end
$var wire 1 ! n_as_signal $end
$var reg 1 = hold $end
$var reg 1 ) n_s_signal $end
$upscope $end
$scope begin $ivl_for_loop0 $end
$var integer 32 > i [31:0] $end
$upscope $end
$upscope $end
$scope module async_fifo $end
$scope module async_bram $end
$var reg 8 ? \data_regs[0] [7:0] $end
$upscope $end
$upscope $end
$scope module async_fifo $end
$scope module async_bram $end
$var reg 8 @ \data_regs[1] [7:0] $end
$upscope $end
$upscope $end
$scope module async_fifo $end
$scope module async_bram $end
$var reg 8 A \data_regs[2] [7:0] $end
$upscope $end
$upscope $end
$scope module async_fifo $end
$scope module async_bram $end
$var reg 8 B \data_regs[3] [7:0] $end
$upscope $end
$upscope $end
$scope module async_fifo $end
$scope module async_bram $end
$var reg 8 C \data_regs[4] [7:0] $end
$upscope $end
$upscope $end
$scope module async_fifo $end
$scope module async_bram $end
$var reg 8 D \data_regs[5] [7:0] $end
$upscope $end
$upscope $end
$scope module async_fifo $end
$scope module async_bram $end
$var reg 8 E \data_regs[6] [7:0] $end
$upscope $end
$upscope $end
$enddefinitions $end
#0
$dumpvars
bx E
bx D
bx C
bx B
bx A
bx @
bx ?
b111 >
0=
bx <
0;
0:
bx 9
08
bx 7
bx 6
b0 5
b0 4
bx 3
bx 2
bx 1
bx 0
bz /
b0 .
x-
x,
1+
bx *
1)
bx (
1'
0&
1%
0$
x#
bz "
1!
$end
#2000
0'
#3000
0%
#4000
1'
#6000
0'
1%
#8000
1'
#9000
0%
#10000
1:
0+
1=
0)
0'
0!
#12000
0#
0,
1-
b0 3
b0 E
b0 D
b0 C
b0 B
b0 A
b0 @
b0 ?
b0 *
b0 2
b0 7
b0 9
b0 1
b1000 5
b0 (
b0 0
b0 6
b0 <
1'
1%
#14000
0'
#15000
0%
#16000
b0 E
b0 D
b0 C
b0 B
b0 A
b0 @
b0 ?
b1000 5
1'
#18000
1!
0'
1%
#20000
b0 E
b0 D
b0 C
b0 B
b0 A
b0 @
b0 ?
0=
b1000 5
1'
#21000
0%
#22000
0'
#24000
b0 E
b0 D
b0 C
b0 B
b0 A
b0 @
b0 ?
1)
0:
b1000 5
1'
1%
#26000
0'
#27000
0%
#28000
1'
#30000
1+
0'
1%
#32000
1;
1&
b10110001 "
b10110001 /
1'
#33000
0%
#34000
0'
#36000
b1101110 "
b1101110 /
b10110001 ?
0-
b1 1
b1 (
b1 0
b1 6
b1 <
1'
1%
#38000
0'
#39000
0%
#40000
b1001100 "
b1001100 /
b1101110 @
b10 1
b10 (
b10 0
b10 6
b10 <
1'
#42000
0'
1%
#44000
0;
0&
b1001100 A
b11 1
b11 (
b11 0
b11 6
b11 <
1'
#45000
0%
#46000
0'
#48000
18
b10110001 .
b10110001 4
1$
1'
1%
#50000
0'
#51000
0%
#52000
1'
#54000
b1101110 .
b1101110 4
b1 3
b1 *
b1 2
b1 7
b1 9
0'
1%
#56000
1'
#57000
0%
#58000
0'
#60000
b1001100 .
b1001100 4
b10 3
b10 *
b10 2
b10 7
b10 9
1'
1%
#60001
08
b0 .
b0 4
0$
#62001
0%
#63001
0'
#64001
1%
#66001
0%
1'
#68001
1%
#69001
0'
#70001
1:
0+
1=
0)
0%
0!
#72001
1-
b0 3
b0 *
b0 2
b0 7
b0 9
b0 E
b0 D
b0 C
b0 B
b0 A
b0 @
b0 ?
b0 1
b1000 5
b0 (
b0 0
b0 6
b0 <
1%
1'
#74001
0%
#75001
0'
#76001
1%
#78001
b0 E
b0 D
b0 C
b0 B
b0 A
b0 @
b0 ?
b1000 5
0%
1'
#80001
1!
1%
#81001
0'
#82001
0%
#84001
0:
b0 E
b0 D
b0 C
b0 B
b0 A
b0 @
b0 ?
0=
b1000 5
1%
1'
#86001
0%
#87001
0'
#88001
1+
1%
#90001
b0 E
b0 D
b0 C
b0 B
b0 A
b0 @
b0 ?
1)
b1000 5
0%
1'
#92001
1%
#93001
0'
#94001
0%
#96001
1;
1&
b111111 "
b111111 /
1%
1'
#98001
0%
#99001
0'
#100001
1%
#102001
b10110000 "
b10110000 /
b111111 ?
0-
b1 1
b1 (
b1 0
b1 6
b1 <
0%
1'
#104001
1%
#105001
0'
#106001
0%
#108001
b11 "
b11 /
b10110000 @
b10 1
b10 (
b10 0
b10 6
b10 <
1%
1'
#110001
0%
#111001
0'
#112001
1%
#114001
0;
0&
b11 A
b11 1
b11 (
b11 0
b11 6
b11 <
0%
1'
#116001
18
b111111 .
b111111 4
1$
1%
#117001
0'
#118001
0%
#120001
b10110000 .
b10110000 4
b1 3
b1 *
b1 2
b1 7
b1 9
1%
1'
#122001
0%
#123001
0'
#124001
b11 .
b11 4
b10 3
b10 *
b10 2
b10 7
b10 9
1%
#124004
08
b0 .
b0 4
1'
0$
#126004
0'
#127004
0%
#128004
1'
#130004
0'
1%
#132004
1'
#133004
0%
#134004
1:
0+
1=
0)
0'
0!
#136004
1-
b0 3
b0 E
b0 D
b0 C
b0 B
b0 A
b0 @
b0 ?
b0 *
b0 2
b0 7
b0 9
b0 1
b1000 5
b0 (
b0 0
b0 6
b0 <
1'
1%
#138004
0'
#139004
0%
#140004
b0 E
b0 D
b0 C
b0 B
b0 A
b0 @
b0 ?
b1000 5
1'
#142004
1!
0'
1%
#144004
b0 E
b0 D
b0 C
b0 B
b0 A
b0 @
b0 ?
0=
b1000 5
1'
#145004
0%
#146004
0'
#148004
b0 E
b0 D
b0 C
b0 B
b0 A
b0 @
b0 ?
1)
0:
b1000 5
1'
1%
#150004
0'
#151004
0%
#152004
1'
#154004
1+
0'
1%
#156004
1;
1&
b11101100 "
b11101100 /
1'
#157004
0%
#158004
0'
#160004
b11101000 "
b11101000 /
b11101100 ?
0-
b1 1
b1 (
b1 0
b1 6
b1 <
1'
1%
#162004
0'
#163004
0%
#164004
b11111100 "
b11111100 /
b11101000 @
b10 1
b10 (
b10 0
b10 6
b10 <
1'
#166004
0'
1%
#168004
b11111010 "
b11111010 /
b11111100 A
b11 1
b11 (
b11 0
b11 6
b11 <
1'
#169004
0%
#170004
0'
#172004
b1110111 "
b1110111 /
b11111010 B
b100 1
b100 (
b100 0
b100 6
b100 <
1'
1%
#174004
0'
#175004
0%
#176004
b10101001 "
b10101001 /
b1110111 C
b101 1
b101 (
b101 0
b101 6
b101 <
1'
#178004
0'
1%
#180004
b1100110 "
b1100110 /
b10101001 D
b110 1
b110 (
b110 0
b110 6
b110 <
1'
#181004
0%
#182004
0'
#184004
0;
0&
b1100110 E
b111 1
b111 (
b111 0
b111 6
b111 <
1'
1%
#186004
0'
#187004
0%
#188004
1'
#190004
18
b11101100 .
b11101100 4
1$
0'
1%
#192004
1'
#193004
0%
#194004
0'
#196004
b11101000 .
b11101000 4
b1 3
b1 *
b1 2
b1 7
b1 9
1'
1%
#198004
0'
#199004
0%
#200004
1'
#202004
b11111100 .
b11111100 4
b10 3
b10 *
b10 2
b10 7
b10 9
0'
1%
#204004
1'
#205004
0%
#206004
0'
#208004
b11111010 .
b11111010 4
b11 3
b11 *
b11 2
b11 7
b11 9
1'
1%
#210004
0'
#211004
0%
#212004
1'
#214004
08
0$
b0 .
b0 4
b100 3
b100 *
b100 2
b100 7
b100 9
0'
1%
#216004
1;
1&
b11010011 "
b11010011 /
1'
#217004
0%
#218004
0'
#220004
b11101111 "
b11101111 /
b0 1
b1000 (
b1000 0
b1000 6
b1000 <
1'
1%
#222004
0'
#223004
0%
#224004
b111010 "
b111010 /
b11101111 ?
b1 1
b1001 (
b1001 0
b1001 6
b1001 <
1'
#226004
0'
1%
#228004
b1001010 "
b1001010 /
b111010 @
b10 1
b1010 (
b1010 0
b1010 6
b1010 <
1'
#229004
0%
#230004
0'
#232004
b11111110 "
b11111110 /
b1001010 A
b11 1
b1011 (
b1011 0
b1011 6
b1011 <
1'
1%
#234004
0'
#235004
0%
#236004
b10001001 "
b10001001 /
b11111110 B
0;
1#
1,
b100 1
b1100 (
b1100 0
b1100 6
b1100 <
1'
#238004
0'
1%
#240004
0&
1'
#241004
0%
#242004
0'
#244004
18
b1110111 .
b1110111 4
1$
1'
1%
#246004
0'
#247004
0%
#248004
1'
#250004
0#
0,
b10101001 .
b10101001 4
b101 3
b101 *
b101 2
b101 7
b101 9
0'
1%
#252004
1'
#253004
0%
#254004
0'
#256004
08
0$
b0 .
b0 4
b110 3
b110 *
b110 2
b110 7
b110 9
1'
1%
#258004
0'
#259004
0%
#260004
1'
#262004
18
b1100110 .
b1100110 4
1$
0'
1%
#264004
1'
#265004
0%
#266004
0'
#268004
b11010011 .
b11010011 4
b111 3
b111 *
b111 2
b111 7
b111 9
1'
1%
#270004
0'
#271004
0%
#272004
1'
#274004
b11101111 .
b11101111 4
b0 3
b1000 *
b1000 2
b1000 7
b1000 9
0'
1%
#276004
1'
#277004
0%
#278004
0'
#280004
b111010 .
b111010 4
b1 3
b1001 *
b1001 2
b1001 7
b1001 9
1'
1%
#280005
08
b0 .
b0 4
0$
#282005
0%
#283005
0'
#284005
1%
#286005
0%
1'
#288005
1%
#289005
0'
#290005
1:
0+
1=
0)
0%
0!
#292005
1-
b0 3
b0 *
b0 2
b0 7
b0 9
b0 E
b0 D
b0 C
b0 B
b0 A
b0 @
b0 ?
b0 1
b1000 5
b0 (
b0 0
b0 6
b0 <
1%
1'
#294005
0%
#295005
0'
#296005
1%
#298005
b0 E
b0 D
b0 C
b0 B
b0 A
b0 @
b0 ?
b1000 5
0%
1'
#300005
1!
1%
#301005
0'
#302005
0%
#304005
0:
b0 E
b0 D
b0 C
b0 B
b0 A
b0 @
b0 ?
0=
b1000 5
1%
1'
#306005
0%
#307005
0'
#308005
1+
1%
#310005
b0 E
b0 D
b0 C
b0 B
b0 A
b0 @
b0 ?
1)
b1000 5
0%
1'
#312005
1%
#313005
0'
#314005
0%
#316005
1;
1&
b10111 "
b10111 /
1%
1'
#318005
0%
#319005
0'
#320005
1%
#322005
b11010 "
b11010 /
b10111 ?
0-
b1 1
b1 (
b1 0
b1 6
b1 <
0%
1'
#324005
1%
#325005
0'
#326005
0%
#328005
b11101011 "
b11101011 /
b11010 @
b10 1
b10 (
b10 0
b10 6
b10 <
1%
1'
#330005
0%
#331005
0'
#332005
1%
#334005
b1101111 "
b1101111 /
b11101011 A
b11 1
b11 (
b11 0
b11 6
b11 <
0%
1'
#336005
1%
#337005
0'
#338005
0%
#340005
b110010 "
b110010 /
b1101111 B
b100 1
b100 (
b100 0
b100 6
b100 <
1%
1'
#342005
0%
#343005
0'
#344005
1%
#346005
b10111011 "
b10111011 /
b110010 C
b101 1
b101 (
b101 0
b101 6
b101 <
0%
1'
#348005
1%
#349005
0'
#350005
0%
#352005
b1101001 "
b1101001 /
b10111011 D
b110 1
b110 (
b110 0
b110 6
b110 <
1%
1'
#354005
0%
#355005
0'
#356005
1%
#358005
0;
0&
b1101001 E
b111 1
b111 (
b111 0
b111 6
b111 <
0%
1'
#360005
18
b10111 .
b10111 4
1$
1%
#361005
0'
#362005
0%
#364005
b11010 .
b11010 4
b1 3
b1 *
b1 2
b1 7
b1 9
1%
1'
#366005
0%
#367005
0'
#368005
b11101011 .
b11101011 4
b10 3
b10 *
b10 2
b10 7
b10 9
1%
#370005
0%
1'
#372005
b1101111 .
b1101111 4
b11 3
b11 *
b11 2
b11 7
b11 9
1%
#373005
0'
#374005
0%
#376005
08
0$
b0 .
b0 4
b100 3
b100 *
b100 2
b100 7
b100 9
1%
1'
#378005
0%
#379005
0'
#380005
1%
#382005
1;
1&
b1101000 "
b1101000 /
0%
1'
#384005
1%
#385005
0'
#386005
0%
#388005
b1000010 "
b1000010 /
b0 1
b1000 (
b1000 0
b1000 6
b1000 <
1%
1'
#390005
0%
#391005
0'
#392005
1%
#394005
b10011 "
b10011 /
b1000010 ?
b1 1
b1001 (
b1001 0
b1001 6
b1001 <
0%
1'
#396005
1%
#397005
0'
#398005
0%
#400005
b11001100 "
b11001100 /
b10011 @
b10 1
b1010 (
b1010 0
b1010 6
b1010 <
1%
1'
#402005
0%
#403005
0'
#404005
1%
#406005
b1000010 "
b1000010 /
b11001100 A
b11 1
b1011 (
b1011 0
b1011 6
b1011 <
0%
1'
#408005
1%
#409005
0'
#410005
0%
#412005
b10111111 "
b10111111 /
b1000010 B
0;
1#
1,
b100 1
b1100 (
b1100 0
b1100 6
b1100 <
1%
1'
#414005
0%
#415005
0'
#416005
1%
#418005
0&
0%
1'
#420005
18
b110010 .
b110010 4
1$
1%
#421005
0'
#422005
0%
#424005
0#
0,
b10111011 .
b10111011 4
b101 3
b101 *
b101 2
b101 7
b101 9
1%
1'
#426005
0%
#427005
0'
#428005
08
0$
b0 .
b0 4
b110 3
b110 *
b110 2
b110 7
b110 9
1%
#430005
0%
1'
#432005
18
b1101001 .
b1101001 4
1$
1%
#433005
0'
#434005
0%
#436005
b1101000 .
b1101000 4
b111 3
b111 *
b111 2
b111 7
b111 9
1%
1'
#438005
0%
#439005
0'
#440005
b1000010 .
b1000010 4
b0 3
b1000 *
b1000 2
b1000 7
b1000 9
1%
#442005
0%
1'
#444005
b10011 .
b10011 4
b1 3
b1001 *
b1001 2
b1001 7
b1001 9
1%
#444006
08
b0 .
b0 4
0$
#446006
0'
#447006
0%
#448006
1'
#450006
0'
1%
#452006
1'
#453006
0%
#454006
1:
0+
1=
0)
0'
0!
#456006
1-
b0 3
b0 E
b0 D
b0 C
b0 B
b0 A
b0 @
b0 ?
b0 *
b0 2
b0 7
b0 9
b0 1
b1000 5
b0 (
b0 0
b0 6
b0 <
1'
1%
#458006
0'
#459006
0%
#460006
b0 E
b0 D
b0 C
b0 B
b0 A
b0 @
b0 ?
b1000 5
1'
#462006
1!
0'
1%
#464006
b0 E
b0 D
b0 C
b0 B
b0 A
b0 @
b0 ?
0=
b1000 5
1'
#465006
0%
#466006
0'
#468006
b0 E
b0 D
b0 C
b0 B
b0 A
b0 @
b0 ?
1)
0:
b1000 5
1'
1%
#470006
0'
#471006
0%
#472006
1'
#474006
1+
0'
1%
#476006
1'
#477006
0%
#478006
0'
#480006
1$
1'
1%
#482006
0'
#483006
0%
#484006
1'
#486006
0'
1%
#486007
1'
0$
#488007
0%
#489007
0'
#490007
1%
#492007
0%
1'
#494007
1%
#495007
0'
#496007
1:
0+
1=
0)
0%
0!
#498007
b0 E
b0 D
b0 C
b0 B
b0 A
b0 @
b0 ?
b1000 5
1%
1'
#500007
0%
#501007
0'
#502007
1%
#504007
b0 E
b0 D
b0 C
b0 B
b0 A
b0 @
b0 ?
b1000 5
0%
1'
#506007
1!
1%
#507007
0'
#508007
0%
#510007
0:
b0 E
b0 D
b0 C
b0 B
b0 A
b0 @
b0 ?
0=
b1000 5
1%
1'
#512007
0%
#513007
0'
#514007
1+
1%
#516007
b0 E
b0 D
b0 C
b0 B
b0 A
b0 @
b0 ?
1)
b1000 5
0%
1'
#518007
1%
#519007
0'
#520007
0%
#522007
1$
1%
1'
#524007
0%
#525007
0'
#526007
1%
#526008
1'
0$
#528008
0'
#529008
0%
#530008
1'
#532008
0'
1%
#534008
1'
#535008
0%
#536008
1:
0+
1=
0)
0'
0!
#538008
b0 E
b0 D
b0 C
b0 B
b0 A
b0 @
b0 ?
b1000 5
1'
1%
#540008
0'
#541008
0%
#542008
b0 E
b0 D
b0 C
b0 B
b0 A
b0 @
b0 ?
b1000 5
1'
#544008
1!
0'
1%
#546008
b0 E
b0 D
b0 C
b0 B
b0 A
b0 @
b0 ?
0=
b1000 5
1'
#547008
0%
#548008
0'
#550008
b0 E
b0 D
b0 C
b0 B
b0 A
b0 @
b0 ?
1)
0:
b1000 5
1'
1%
#552008
0'
#553008
0%
#554008
1'
#556008
1+
0'
1%
#558008
1'
#559008
0%
#560008
0'
#562008
1$
1'
1%
#564008
0'
#565008
0%
#566008
1'
#568008
0'
1%
#570008
1'
#571008
0%
#572008
0'
#574008
1'
1%
#574009
0$
#576009
0%
#577009
0'
#578009
1%
#580009
0%
1'
#582009
1%
#583009
0'
#584009
1:
0+
1=
0)
0%
0!
#586009
b0 E
b0 D
b0 C
b0 B
b0 A
b0 @
b0 ?
b1000 5
1%
1'
#588009
0%
#589009
0'
#590009
1%
#592009
b0 E
b0 D
b0 C
b0 B
b0 A
b0 @
b0 ?
b1000 5
0%
1'
#594009
1!
1%
#595009
0'
#596009
0%
#598009
0:
b0 E
b0 D
b0 C
b0 B
b0 A
b0 @
b0 ?
0=
b1000 5
1%
1'
#600009
0%
#601009
0'
#602009
1+
1%
#604009
b0 E
b0 D
b0 C
b0 B
b0 A
b0 @
b0 ?
1)
b1000 5
0%
1'
#606009
1%
#607009
0'
#608009
0%
#610009
1$
1%
1'
