sim.vcd
$date
	Thu Jun 15 10:14:15 2023
$end
$version
	Icarus Verilog
$end
$timescale
	1ps
$end
$scope module gmii_test $end
$scope module transmit $end
$scope module encapsulation $end
$var wire 8 ! GMII_d [7:0] $end
$var wire 2 " bf_out_buffer_ready [1:0] $end
$var wire 1 # clk $end
$var wire 8 $ crc_data_in [7:0] $end
$var wire 1 % eth_tx_clk $end
$var wire 1 & eth_tx_en $end
$var wire 8 ' ff_out_data_in [7:0] $end
$var wire 1 ( rst $end
$var wire 1 ) data_out_en $end
$var wire 32 * crc_check [31:0] $end
$var reg 1 + GMII_tx_dv $end
$var reg 1 , GMII_tx_er $end
$var reg 1 - bf_in_pct_txed $end
$var reg 1 . bf_in_r_en $end
$var reg 16 / byte_count [15:0] $end
$var reg 1 0 crc_lsb $end
$var reg 32 1 crc_res [31:0] $end
$var reg 8 2 data_out [7:0] $end
$var reg 5 3 intr_pct_gap [4:0] $end
$var reg 16 4 len_payload [15:0] $end
$var reg 1 5 rst_crc $end
$var reg 4 6 state_reg [3:0] $end
$var reg 1 7 updatecrc $end
$scope function reflect_byte $end
$upscope $end
$scope module crc_mod $end
$var wire 1 % clk $end
$var wire 1 0 crc_lsb $end
$var wire 8 8 data [7:0] $end
$var wire 1 5 rst $end
$var wire 1 9 strt $end
$var wire 1 7 updatecrc $end
$var wire 32 : result [31:0] $end
$var wire 8 ; data_r [7:0] $end
$var reg 12 < bit_n [11:0] $end
$var reg 12 = byte_count [11:0] $end
$var reg 32 > crc [31:0] $end
$var reg 32 ? crc_acc [31:0] $end
$var reg 32 @ crc_acc_n [31:0] $end
$var reg 8 A data_buf [7:0] $end
$var reg 32 B nresult [31:0] $end
$var reg 12 C payload_len [11:0] $end
$scope function crc_bit_updt $end
$upscope $end
$scope function reflect_byte $end
$upscope $end
$scope function reflectcrc $end
$upscope $end
$upscope $end
$upscope $end
$upscope $end
$upscope $end
$scope module gmii_test $end
$scope module transmit $end
$scope module async_fifo $end
$scope module async_bram $end
$var reg 8 D \data_regs[0] [7:0] $end
$upscope $end
$upscope $end
$upscope $end
$upscope $end
$scope module gmii_test $end
$scope module transmit $end
$scope module async_fifo $end
$scope module async_bram $end
$var reg 8 E \data_regs[1] [7:0] $end
$upscope $end
$upscope $end
$upscope $end
$upscope $end
$scope module gmii_test $end
$scope module transmit $end
$scope module async_fifo $end
$scope module async_bram $end
$var reg 8 F \data_regs[2] [7:0] $end
$upscope $end
$upscope $end
$upscope $end
$upscope $end
$scope module gmii_test $end
$scope module transmit $end
$scope module async_fifo $end
$scope module async_bram $end
$var reg 8 G \data_regs[3] [7:0] $end
$upscope $end
$upscope $end
$upscope $end
$upscope $end
$scope module gmii_test $end
$scope module transmit $end
$scope module async_fifo $end
$scope module async_bram $end
$var reg 8 H \data_regs[4] [7:0] $end
$upscope $end
$upscope $end
$upscope $end
$upscope $end
$scope module gmii_test $end
$scope module transmit $end
$scope module async_fifo $end
$scope module async_bram $end
$var reg 8 I \data_regs[5] [7:0] $end
$upscope $end
$upscope $end
$upscope $end
$upscope $end
$scope module gmii_test $end
$scope module transmit $end
$scope module async_fifo $end
$scope module async_bram $end
$var reg 8 J \data_regs[6] [7:0] $end
$upscope $end
$upscope $end
$upscope $end
$upscope $end
$scope module gmii_test $end
$scope module transmit $end
$scope module async_fifo $end
$scope module async_bram $end
$var reg 8 K \data_regs[7] [7:0] $end
$upscope $end
$upscope $end
$upscope $end
$upscope $end
$scope module gmii_test $end
$scope module transmit $end
$var wire 1 L buf_w_en $end
$var wire 8 M data_in [7:0] $end
$var wire 1 ( eth_rst $end
$var wire 1 % eth_tx_clk $end
$var wire 1 & eth_tx_en $end
$var wire 1 N fifo_nrst $end
$var wire 1 O pct_qued $end
$var wire 1 P r_clk $end
$var wire 1 # sys_clk $end
$var wire 1 Q w_clk $end
$var wire 8 R buf_data_out [7:0] $end
$var wire 2 S bf_out_buffer_ready [1:0] $end
$var wire 1 . bf_in_r_en $end
$var wire 1 - bf_in_pct_txed $end
$scope module async_fifo $end
$var wire 1 N arst_n $end
$var wire 8 T data_in [7:0] $end
$var wire 1 U full $end
$var wire 1 P rclk $end
$var wire 1 L w_en $end
$var wire 1 # wclk $end
$var wire 13 V wrt_ptr [12:0] $end
$var wire 1 W wr_srstn $end
$var wire 13 X read_ptr [12:0] $end
$var wire 1 Y rd_srstn $end
$var wire 1 . r_en $end
$var wire 1 Z full_gen $end
$var wire 1 [ empt $end
$var wire 8 \ data_out [7:0] $end
$scope module async_bram $end
$var wire 8 ] data_in [7:0] $end
$var wire 1 U full $end
$var wire 1 P rd_clk $end
$var wire 1 # wr_clk $end
$var wire 1 L wr_en $end
$var wire 13 ^ wrt_ptr [12:0] $end
$var wire 1 W wr_srstn $end
$var wire 12 _ w_ptr [11:0] $end
$var wire 13 ` read_ptr [12:0] $end
$var wire 1 . rd_en $end
$var wire 12 a r_ptr [11:0] $end
$var wire 8 b data_out [7:0] $end
$scope begin $ivl_for_loop2 $end
$var integer 32 c i [31:0] $end
$upscope $end
$upscope $end
$scope module empt_gen $end
$var wire 13 d wr_pointer [12:0] $end
$var wire 13 e rd_pointer [12:0] $end
$var wire 1 Z full $end
$var wire 1 [ empty $end
$upscope $end
$scope module rd_pointer $end
$var wire 1 [ empty $end
$var wire 1 P rclk $end
$var wire 1 f rd_ready $end
$var wire 1 Y rd_srstn $end
$var wire 1 . rd_en $end
$var reg 13 g read_ptr [12:0] $end
$upscope $end
$scope module rd_rst_scnch_m $end
$var wire 1 P clk $end
$var wire 1 N n_as_signal $end
$var reg 1 h hold $end
$var reg 1 Y n_s_signal $end
$upscope $end
$scope module wr_pointer $end
$var wire 1 U full $end
$var wire 1 # wclk $end
$var wire 1 L wr_en $end
$var wire 1 i wr_ready $end
$var wire 1 W wr_srstn $end
$var reg 13 j wrt_ptr [12:0] $end
$upscope $end
$scope module wr_rst_scnch_m $end
$var wire 1 # clk $end
$var wire 1 N n_as_signal $end
$var reg 1 k hold $end
$var reg 1 W n_s_signal $end
$upscope $end
$scope begin $ivl_for_loop0 $end
$var integer 32 l i [31:0] $end
$upscope $end
$upscope $end
$scope module buf_ready $end
$var wire 1 O bf_in_pct_qued $end
$var wire 1 # eth_tx_clk $end
$var wire 1 ( rst $end
$var wire 1 - bf_in_pct_txed $end
$var reg 2 m bf_out_buffer_ready [1:0] $end
$upscope $end
$scope module encapsulation $end
$scope function reflect_byte $end
$upscope $end
$scope module crc_mod $end
$scope function crc_bit_updt $end
$upscope $end
$scope function reflect_byte $end
$upscope $end
$scope function reflectcrc $end
$upscope $end
$upscope $end
$upscope $end
$upscope $end
$upscope $end
$scope module gmii_test $end
$var wire 1 n adr_err $end
$var wire 2 o bf_out_buffer_ready [1:0] $end
$var wire 1 L buf_w_en $end
$var wire 1 p buffer_full $end
$var wire 8 q data_in [7:0] $end
$var wire 1 r eth_rst $end
$var wire 1 % eth_rx_clk $end
$var wire 1 s eth_tx_clk $end
$var wire 1 & eth_tx_en $end
$var wire 8 t ff_out_data_in [7:0] $end
$var wire 1 u len_err $end
$var wire 1 v ncrc_err $end
$var wire 1 O pct_qued $end
$var wire 1 ( rst $end
$var wire 1 # sys_clk $end
$var reg 8 w GMII_tx_d [7:0] $end
$var reg 1 x GMII_tx_dv $end
$var reg 1 y GMII_tx_er $end
$var reg 1 z bf_in_r_en $end
$scope module decapsulation $end
$var wire 1 % clk $end
$var wire 1 { crc_lsb $end
$var wire 1 | eth_tx_clk $end
$var wire 8 } gmii_data_in [7:0] $end
$var wire 1 x gmii_dv $end
$var wire 1 ~ gmii_en $end
$var wire 1 y gmii_er $end
$var wire 1 !" rst $end
$var wire 1 "" rst_crc $end
$var wire 1 #" updatecrc $end
$var wire 1 $" wrong_addr $end
$var wire 1 %" data_out_en $end
$var wire 32 &" crc_check [31:0] $end
$var wire 1 '" cont_stages $end
$var reg 1 (" adr_err $end
$var reg 1 )" buffer_full $end
$var reg 14 *" byte_count [13:0] $end
$var reg 80 +" data_buf [79:0] $end
$var reg 32 ," data_crc [31:0] $end
$var reg 16 -" data_len [15:0] $end
$var reg 48 ." dest_addr [47:0] $end
$var reg 8 /" gmii_buf [7:0] $end
$var reg 1 0" len_err $end
$var reg 16 1" len_payload [15:0] $end
$var reg 1 2" ncrc_err $end
$var reg 1 3" rst_crc_reg $end
$var reg 48 4" source_addr [47:0] $end
$var reg 4 5" state_reg [3:0] $end
$var reg 1 6" updatecrc_reg $end
$scope module crc_mod $end
$var wire 1 | clk $end
$var wire 1 { crc_lsb $end
$var wire 8 7" data [7:0] $end
$var wire 1 "" rst $end
$var wire 1 8" strt $end
$var wire 1 #" updatecrc $end
$var wire 32 9" result [31:0] $end
$var wire 8 :" data_r [7:0] $end
$var reg 12 ;" bit_n [11:0] $end
$var reg 12 <" byte_count [11:0] $end
$var reg 32 =" crc [31:0] $end
$var reg 32 >" crc_acc [31:0] $end
$var reg 32 ?" crc_acc_n [31:0] $end
$var reg 8 @" data_buf [7:0] $end
$var reg 32 A" nresult [31:0] $end
$var reg 12 B" payload_len [11:0] $end
$scope function crc_bit_updt $end
$upscope $end
$scope function reflect_byte $end
$upscope $end
$scope function reflectcrc $end
$upscope $end
$upscope $end
$upscope $end
$scope module transmit $end
$scope module async_fifo $end
$scope module async_bram $end
$scope begin $ivl_for_loop2 $end
$upscope $end
$upscope $end
$scope module empt_gen $end
$upscope $end
$scope module rd_pointer $end
$upscope $end
$scope module rd_rst_scnch_m $end
$upscope $end
$scope module wr_pointer $end
$upscope $end
$scope module wr_rst_scnch_m $end
$upscope $end
$scope begin $ivl_for_loop0 $end
$upscope $end
$upscope $end
$scope module buf_ready $end
$upscope $end
$scope module encapsulation $end
$scope function reflect_byte $end
$upscope $end
$scope module crc_mod $end
$scope function crc_bit_updt $end
$upscope $end
$scope function reflect_byte $end
$upscope $end
$scope function reflectcrc $end
$upscope $end
$upscope $end
$upscope $end
$upscope $end
$upscope $end
$enddefinitions $end
#0
$dumpvars
b10111101011 B"
b0 A"
b0 @"
b11111111111111111111111111111111 ?"
b11111111111111111111111111111111 >"
b100110000010001110110110111 ="
b0 <"
b0 ;"
bz0000000 :"
b0 9"
z8"
b0z 7"
06"
b0 5"
bx 4"
13"
x2"
b0 1"
x0"
bx /"
bx ."
bx -"
bx ,"
bx +"
b0 *"
x)"
x("
x'"
b0 &"
1%"
0$"
0#"
1""
z!"
1~
bx }
z|
z{
xz
xy
xx
bx w
zv
zu
bz t
1s
zr
bz q
zp
bz o
zn
b0 m
b1000 l
0k
bx j
xi
0h
bx g
xf
bx e
bx d
b0 c
bx b
bx a
bx `
bx _
bx ^
bz ]
bx \
x[
xZ
xY
bx X
xW
bx V
xU
bz T
b0 S
bx R
1Q
1P
0O
zN
bz M
zL
bx K
bx J
bx I
bx H
bx G
bx F
bx E
bx D
b10111101011 C
b0 B
b0 A
b11111111111111111111111111111111 @
b11111111111111111111111111111111 ?
b100110000010001110110110111 >
b0 =
b0 <
b0 ;
b0 :
z9
b0 8
07
b0 6
15
b0 4
b0 3
b0 2
b1111 1
00
b0 /
x.
x-
x,
0+
b0 *
0)
z(
bx '
z&
1%
b0 $
1#
b0 "
b0 !
$end
#1000
0Q
0#
#2000
1Q
1#
0s
#3000
0Q
0#
0P
0%
#4000
1Q
1#
1s
#5000
0Q
0#
#6000
1Q
1#
0s
1P
1%
#7000
0Q
0#
#8000
1Q
1#
1s
#9000
0Q
0#
0P
0%
#10000
0f
0i
1h
0Y
1k
0W
0N
1Q
1#
0s
1(
#11000
0Q
0#
#12000
0U
0Z
b0 '
b0 R
b0 \
b0 b
1[
b0 a
b0 K
b0 J
b0 I
b0 H
b0 G
b0 F
b0 E
b0 D
0-
b0 X
b0 `
b0 e
b0 g
b0 _
b101111101100 c
b0 V
b0 ^
b0 d
b0 j
1Q
1#
1s
1P
1%
#13000
0Q
0#
#14000
b0 K
b0 J
b0 I
b0 H
b0 G
b0 F
b0 E
b0 D
b101111101100 c
1Q
1#
0s
#15000
0Q
0#
0P
0%
#16000
1N
0(
b0 K
b0 J
b0 I
b0 H
b0 G
b0 F
b0 E
b0 D
b101111101100 c
1Q
1#
1s
#17000
0Q
0#
#18000
b0 K
b0 J
b0 I
b0 H
b0 G
b0 F
b0 E
b0 D
0k
0h
b101111101100 c
1Q
1#
0s
1P
1%
#19000
0Q
0#
#20000
xi
b0 K
b0 J
b0 I
b0 H
b0 G
b0 F
b0 E
b0 D
1W
b101111101100 c
1Q
1#
1s
#21000
0Q
0#
0P
0%
#22000
1Q
1#
0s
#23000
0Q
0#
#24000
1Y
1Q
1#
1s
1P
1%
#25000
0Q
0#
#26000
1Q
1#
0s
#27000
0Q
0#
0P
0%
#28000
1i
b0 M
b0 T
b0 ]
b0 q
1L
1Q
1#
1s
#29000
0Q
0#
#30000
b11101000 M
b11101000 T
b11101000 ]
b11101000 q
b0 D
xf
0[
b1 _
b1 V
b1 ^
b1 d
b1 j
1Q
1#
0s
1P
1%
#31000
0Q
0#
#32000
b11001010 M
b11001010 T
b11001010 ]
b11001010 q
b11101000 E
b10 _
b10 V
b10 ^
b10 d
b10 j
1Q
1#
1s
#33000
0Q
0#
0P
0%
#34000
b11110 M
b11110 T
b11110 ]
b11110 q
b11001010 F
b11 _
b11 V
b11 ^
b11 d
b11 j
1Q
1#
0s
#35000
0Q
0#
#36000
b1001110 M
b1001110 T
b1001110 ]
b1001110 q
b11110 G
b100 _
b100 V
b100 ^
b100 d
b100 j
1Q
1#
1s
1P
1%
#37000
0Q
0#
#38000
b1011010 M
b1011010 T
b1011010 ]
b1011010 q
b1001110 H
b101 _
b101 V
b101 ^
b101 d
b101 j
1Q
1#
0s
#39000
0Q
0#
0P
0%
#40000
b11110010 M
b11110010 T
b11110010 ]
b11110010 q
b1011010 I
b110 _
b110 V
b110 ^
b110 d
b110 j
1Q
1#
1s
#41000
0Q
0#
#42000
b1110110 M
b1110110 T
b1110110 ]
b1110110 q
b11110010 J
b111 _
b111 V
b111 ^
b111 d
b111 j
1Q
1#
0s
1P
1%
#43000
0Q
0#
#44000
b11100110 M
b11100110 T
b11100110 ]
b11100110 q
b1110110 K
b1000 _
b1000 V
b1000 ^
b1000 d
b1000 j
1Q
1#
1s
#45000
0Q
0#
0P
0%
#46000
b10110010 M
b10110010 T
b10110010 ]
b10110010 q
b1001 _
b1001 V
b1001 ^
b1001 d
b1001 j
1Q
1#
0s
#47000
0Q
0#
#48000
b1110110 M
b1110110 T
b1110110 ]
b1110110 q
b1010 _
b1010 V
b1010 ^
b1010 d
b1010 j
1Q
1#
1s
1P
1%
#49000
0Q
0#
#50000
b10001110 M
b10001110 T
b10001110 ]
b10001110 q
b1011 _
b1011 V
b1011 ^
b1011 d
b1011 j
1Q
1#
0s
#51000
0Q
0#
0P
0%
#52000
b1110010 M
b1110010 T
b1110010 ]
b1110010 q
b1100 _
b1100 V
b1100 ^
b1100 d
b1100 j
1Q
1#
1s
#53000
0Q
0#
#54000
b110110 M
b110110 T
b110110 ]
b110110 q
b1101 _
b1101 V
b1101 ^
b1101 d
b1101 j
1Q
1#
0s
1P
1%
#55000
0Q
0#
#56000
b101010 M
b101010 T
b101010 ]
b101010 q
b1110 _
b1110 V
b1110 ^
b1110 d
b1110 j
1Q
1#
1s
#57000
0Q
0#
0P
0%
#58000
b1110110 M
b1110110 T
b1110110 ]
b1110110 q
b1111 _
b1111 V
b1111 ^
b1111 d
b1111 j
1Q
1#
0s
#59000
0Q
0#
#60000
b1011010 M
b1011010 T
b1011010 ]
b1011010 q
b10000 _
b10000 V
b10000 ^
b10000 d
b10000 j
1Q
1#
1s
1P
1%
#61000
0Q
0#
#62000
b10110 M
b10110 T
b10110 ]
b10110 q
b10001 _
b10001 V
b10001 ^
b10001 d
b10001 j
1Q
1#
0s
#63000
0Q
0#
0P
0%
#64000
b11010 M
b11010 T
b11010 ]
b11010 q
b10010 _
b10010 V
b10010 ^
b10010 d
b10010 j
1Q
1#
1s
#65000
0Q
0#
#66000
b11110 M
b11110 T
b11110 ]
b11110 q
b10011 _
b10011 V
b10011 ^
b10011 d
b10011 j
1Q
1#
0s
1P
1%
#67000
0Q
0#
#68000
b1010 M
b1010 T
b1010 ]
b1010 q
b10100 _
b10100 V
b10100 ^
b10100 d
b10100 j
1Q
1#
1s
#69000
0Q
0#
0P
0%
#70000
b101110 M
b101110 T
b101110 ]
b101110 q
b10101 _
b10101 V
b10101 ^
b10101 d
b10101 j
1Q
1#
0s
#71000
0Q
0#
#72000
1O
b1100110 M
b1100110 T
b1100110 ]
b1100110 q
b10110 _
b10110 V
b10110 ^
b10110 d
b10110 j
1Q
1#
1s
1P
1%
#73000
0Q
0#
#74000
0O
b1 "
b1 S
b1 m
b10111 _
b10111 V
b10111 ^
b10111 d
b10111 j
1Q
1#
0s
#75000
0Q
0#
0P
0%
#76000
b11000 _
b11000 V
b11000 ^
b11000 d
b11000 j
1Q
1#
1s
#77000
0Q
0#
#78000
b11001 _
b11001 V
b11001 ^
b11001 d
b11001 j
1Q
1#
0s
1P
1%
#79000
0Q
0#
#80000
b11010 _
b11010 V
b11010 ^
b11010 d
b11010 j
1Q
1#
1s
#81000
0Q
0#
0P
0%
#82000
b11011 _
b11011 V
b11011 ^
b11011 d
b11011 j
1Q
1#
0s
#83000
0Q
0#
#84000
b11100 _
b11100 V
b11100 ^
b11100 d
b11100 j
1Q
1#
1s
1P
1%
#85000
0Q
0#
#86000
b11101 _
b11101 V
b11101 ^
b11101 d
b11101 j
1Q
1#
0s
#87000
0Q
0#
0P
0%
#88000
b11110 _
b11110 V
b11110 ^
b11110 d
b11110 j
1Q
1#
1s
#89000
0Q
0#
#90000
b11111 _
b11111 V
b11111 ^
b11111 d
b11111 j
1Q
1#
0s
1P
1%
#91000
0Q
0#
#92000
b100000 _
b100000 V
b100000 ^
b100000 d
b100000 j
1Q
1#
1s
#93000
0Q
0#
0P
0%
#94000
b100001 _
b100001 V
b100001 ^
b100001 d
b100001 j
1Q
1#
0s
#95000
0Q
0#
#96000
b100010 _
b100010 V
b100010 ^
b100010 d
b100010 j
1Q
1#
1s
1P
1%
#97000
0Q
0#
#98000
b100011 _
b100011 V
b100011 ^
b100011 d
b100011 j
1Q
1#
0s
#99000
0Q
0#
0P
0%
#100000
b100100 _
b100100 V
b100100 ^
b100100 d
b100100 j
1Q
1#
1s
#101000
0Q
0#
#102000
b0 M
b0 T
b0 ]
b0 q
b100101 _
b100101 V
b100101 ^
b100101 d
b100101 j
1Q
1#
0s
1P
1%
#103000
0Q
0#
#104000
b10001000 M
b10001000 T
b10001000 ]
b10001000 q
b100110 _
b100110 V
b100110 ^
b100110 d
b100110 j
1Q
1#
1s
#105000
0Q
0#
0P
0%
#106000
b11001010 M
b11001010 T
b11001010 ]
b11001010 q
b100111 _
b100111 V
b100111 ^
b100111 d
b100111 j
1Q
1#
0s
#107000
0Q
0#
#108000
b10110 M
b10110 T
b10110 ]
b10110 q
b101000 _
b101000 V
b101000 ^
b101000 d
b101000 j
1Q
1#
1s
1P
1%
#109000
0Q
0#
#110000
b11001110 M
b11001110 T
b11001110 ]
b11001110 q
b101001 _
b101001 V
b101001 ^
b101001 d
b101001 j
1Q
1#
0s
#111000
0Q
0#
0P
0%
#112000
b10010 M
b10010 T
b10010 ]
b10010 q
b101010 _
b101010 V
b101010 ^
b101010 d
b101010 j
1Q
1#
1s
#113000
0Q
0#
#114000
b1000110 M
b1000110 T
b1000110 ]
b1000110 q
b101011 _
b101011 V
b101011 ^
b101011 d
b101011 j
1Q
1#
0s
1P
1%
#115000
0Q
0#
#116000
b10110110 M
b10110110 T
b10110110 ]
b10110110 q
b101100 _
b101100 V
b101100 ^
b101100 d
b101100 j
1Q
1#
1s
#117000
0Q
0#
0P
0%
#118000
b1001010 M
b1001010 T
b1001010 ]
b1001010 q
b101101 _
b101101 V
b101101 ^
b101101 d
b101101 j
1Q
1#
0s
#119000
0Q
0#
#120000
b1011010 M
b1011010 T
b1011010 ]
b1011010 q
b101110 _
b101110 V
b101110 ^
b101110 d
b101110 j
1Q
1#
1s
1P
1%
#121000
0Q
0#
#122000
b101110 M
b101110 T
b101110 ]
b101110 q
b101111 _
b101111 V
b101111 ^
b101111 d
b101111 j
1Q
1#
0s
#123000
0Q
0#
0P
0%
#124000
b101010 M
b101010 T
b101010 ]
b101010 q
b110000 _
b110000 V
b110000 ^
b110000 d
b110000 j
1Q
1#
1s
#125000
0Q
0#
#126000
b1100010 M
b1100010 T
b1100010 ]
b1100010 q
b110001 _
b110001 V
b110001 ^
b110001 d
b110001 j
1Q
1#
0s
1P
1%
#127000
0Q
0#
#128000
b1100110 M
b1100110 T
b1100110 ]
b1100110 q
b110010 _
b110010 V
b110010 ^
b110010 d
b110010 j
1Q
1#
1s
#129000
0Q
0#
0P
0%
#130000
b10011010 M
b10011010 T
b10011010 ]
b10011010 q
b110011 _
b110011 V
b110011 ^
b110011 d
b110011 j
1Q
1#
0s
#131000
0Q
0#
#132000
b1011110 M
b1011110 T
b1011110 ]
b1011110 q
b110100 _
b110100 V
b110100 ^
b110100 d
b110100 j
1Q
1#
1s
1P
1%
#133000
0Q
0#
#134000
1O
b1000010 M
b1000010 T
b1000010 ]
b1000010 q
b110101 _
b110101 V
b110101 ^
b110101 d
b110101 j
1Q
1#
0s
#135000
0Q
0#
0P
0%
#136000
0O
b10 "
b10 S
b10 m
b110110 _
b110110 V
b110110 ^
b110110 d
b110110 j
1Q
1#
1s
#137000
0Q
0#
#138000
b110111 _
b110111 V
b110111 ^
b110111 d
b110111 j
1Q
1#
0s
1P
1%
#139000
0Q
0#
#140000
b111000 _
b111000 V
b111000 ^
b111000 d
b111000 j
1Q
1#
1s
#141000
0Q
0#
0P
0%
#142000
b111001 _
b111001 V
b111001 ^
b111001 d
b111001 j
1Q
1#
0s
#143000
0Q
0#
#144000
b111010 _
b111010 V
b111010 ^
b111010 d
b111010 j
1Q
1#
1s
1P
1%
#145000
0Q
0#
#146000
b111011 _
b111011 V
b111011 ^
b111011 d
b111011 j
1Q
1#
0s
#147000
0Q
0#
0P
0%
#148000
b111100 _
b111100 V
b111100 ^
b111100 d
b111100 j
1Q
1#
1s
#149000
0Q
0#
#150000
b111101 _
b111101 V
b111101 ^
b111101 d
b111101 j
1Q
1#
0s
1P
1%
#151000
0Q
0#
#152000
b111110 _
b111110 V
b111110 ^
b111110 d
b111110 j
1Q
1#
1s
#153000
0Q
0#
0P
0%
#154000
b111111 _
b111111 V
b111111 ^
b111111 d
b111111 j
1Q
1#
0s
#155000
0Q
0#
#156000
b1000000 _
b1000000 V
b1000000 ^
b1000000 d
b1000000 j
1Q
1#
1s
1P
1%
#157000
0Q
0#
#158000
b1000001 _
b1000001 V
b1000001 ^
b1000001 d
b1000001 j
1Q
1#
0s
#159000
0Q
0#
0P
0%
#160000
b1000010 _
b1000010 V
b1000010 ^
b1000010 d
b1000010 j
1Q
1#
1s
#161000
0Q
0#
#162000
b1000011 _
b1000011 V
b1000011 ^
b1000011 d
b1000011 j
1Q
1#
0s
1P
1%
#163000
0Q
0#
#164000
b1000100 _
b1000100 V
b1000100 ^
b1000100 d
b1000100 j
1Q
1#
1s
#165000
0Q
0#
0P
0%
#166000
b1000101 _
b1000101 V
b1000101 ^
b1000101 d
b1000101 j
1Q
1#
0s
#167000
0Q
0#
#168000
b1000110 _
b1000110 V
b1000110 ^
b1000110 d
b1000110 j
1Q
1#
1s
1P
1%
#169000
0Q
0#
#170000
b1000111 _
b1000111 V
b1000111 ^
b1000111 d
b1000111 j
1Q
1#
0s
#171000
0Q
0#
0P
0%
#172000
b1001000 _
b1001000 V
b1001000 ^
b1001000 d
b1001000 j
1Q
1#
1s
#173000
0Q
0#
#174000
b1001001 _
b1001001 V
b1001001 ^
b1001001 d
b1001001 j
1Q
1#
0s
1P
1%
#175000
0Q
0#
#176000
0f
0i
1h
0Y
b0 "
b0 S
b0 m
1k
0W
b1001010 _
b1001010 V
b1001010 ^
b1001010 d
b1001010 j
0N
1Q
1#
1s
1(
#177000
0Q
0#
0P
0%
#178000
b0 K
b0 J
b0 I
b0 H
b0 G
b0 F
b0 E
b0 D
1[
b0 _
b101111101100 c
b0 V
b0 ^
b0 d
b0 j
1Q
1#
0s
#179000
0Q
0#
#180000
b0 K
b0 J
b0 I
b0 H
b0 G
b0 F
b0 E
b0 D
b101111101100 c
1Q
1#
1s
1P
1%
#181000
0Q
0#
#182000
b0 K
b0 J
b0 I
b0 H
b0 G
b0 F
b0 E
b0 D
b101111101100 c
1Q
1#
0s
#183000
0Q
0#
0P
0%
#184000
b0 K
b0 J
b0 I
b0 H
b0 G
b0 F
b0 E
b0 D
b101111101100 c
1Q
1#
1s
#185000
0Q
0#
#186000
b0 K
b0 J
b0 I
b0 H
b0 G
b0 F
b0 E
b0 D
b101111101100 c
1Q
1#
0s
1P
1%
#187000
0Q
0#
#188000
b0 K
b0 J
b0 I
b0 H
b0 G
b0 F
b0 E
b0 D
b101111101100 c
1Q
1#
1s
#189000
0Q
0#
0P
0%
#190000
b0 K
b0 J
b0 I
b0 H
b0 G
b0 F
b0 E
b0 D
b101111101100 c
1Q
1#
0s
#191000
0Q
0#
#192000
b0 K
b0 J
b0 I
b0 H
b0 G
b0 F
b0 E
b0 D
b101111101100 c
1Q
1#
1s
1P
1%
#193000
0Q
0#
#194000
b0 K
b0 J
b0 I
b0 H
b0 G
b0 F
b0 E
b0 D
b101111101100 c
1Q
1#
0s
#195000
0Q
0#
0P
0%
#196000
b0 K
b0 J
b0 I
b0 H
b0 G
b0 F
b0 E
b0 D
b101111101100 c
1Q
1#
1s
#197000
0Q
0#
#198000
b0 K
b0 J
b0 I
b0 H
b0 G
b0 F
b0 E
b0 D
b101111101100 c
1Q
1#
0s
1P
1%
#199000
0Q
0#
#200000
b0 K
b0 J
b0 I
b0 H
b0 G
b0 F
b0 E
b0 D
b101111101100 c
1Q
1#
1s
#201000
0Q
0#
0P
0%
#202000
b0 K
b0 J
b0 I
b0 H
b0 G
b0 F
b0 E
b0 D
b101111101100 c
1Q
1#
0s
#203000
0Q
0#
#204000
b0 K
b0 J
b0 I
b0 H
b0 G
b0 F
b0 E
b0 D
b101111101100 c
1Q
1#
1s
1P
1%
#205000
0Q
0#
#206000
b0 K
b0 J
b0 I
b0 H
b0 G
b0 F
b0 E
b0 D
b101111101100 c
1Q
1#
0s
#207000
0Q
0#
0P
0%
#208000
b0 K
b0 J
b0 I
b0 H
b0 G
b0 F
b0 E
b0 D
b101111101100 c
1Q
1#
1s
#209000
0Q
0#
#210000
b0 K
b0 J
b0 I
b0 H
b0 G
b0 F
b0 E
b0 D
b101111101100 c
1Q
1#
0s
1P
1%
#211000
0Q
0#
#212000
b0 K
b0 J
b0 I
b0 H
b0 G
b0 F
b0 E
b0 D
b101111101100 c
1Q
1#
1s
#213000
0Q
0#
0P
0%
#214000
b0 K
b0 J
b0 I
b0 H
b0 G
b0 F
b0 E
b0 D
b101111101100 c
1Q
1#
0s
#215000
0Q
0#
#216000
b0 K
b0 J
b0 I
b0 H
b0 G
b0 F
b0 E
b0 D
b101111101100 c
1Q
1#
1s
1P
1%
#217000
0Q
0#
#218000
b0 K
b0 J
b0 I
b0 H
b0 G
b0 F
b0 E
b0 D
b101111101100 c
1Q
1#
0s
#219000
0Q
0#
0P
0%
#220000
b0 K
b0 J
b0 I
b0 H
b0 G
b0 F
b0 E
b0 D
b101111101100 c
1Q
1#
1s
#221000
0Q
0#
#222000
b0 K
b0 J
b0 I
b0 H
b0 G
b0 F
b0 E
b0 D
b101111101100 c
1Q
1#
0s
1P
1%
#223000
0Q
0#
#224000
b0 K
b0 J
b0 I
b0 H
b0 G
b0 F
b0 E
b0 D
b101111101100 c
1Q
1#
1s
#225000
0Q
0#
0P
0%
#226000
b0 K
b0 J
b0 I
b0 H
b0 G
b0 F
b0 E
b0 D
b101111101100 c
1Q
1#
0s
#227000
0Q
0#
#228000
b0 K
b0 J
b0 I
b0 H
b0 G
b0 F
b0 E
b0 D
b101111101100 c
1Q
1#
1s
1P
1%
#229000
0Q
0#
#230000
b0 K
b0 J
b0 I
b0 H
b0 G
b0 F
b0 E
b0 D
b101111101100 c
1Q
1#
0s
#231000
0Q
0#
0P
0%
#232000
b0 K
b0 J
b0 I
b0 H
b0 G
b0 F
b0 E
b0 D
b101111101100 c
1Q
1#
1s
#233000
0Q
0#
#234000
b0 K
b0 J
b0 I
b0 H
b0 G
b0 F
b0 E
b0 D
b101111101100 c
1Q
1#
0s
1P
1%
#235000
0Q
0#
#236000
b0 K
b0 J
b0 I
b0 H
b0 G
b0 F
b0 E
b0 D
b101111101100 c
1Q
1#
1s
#237000
0Q
0#
0P
0%
#238000
b0 K
b0 J
b0 I
b0 H
b0 G
b0 F
b0 E
b0 D
b101111101100 c
1Q
1#
0s
#239000
0Q
0#
#240000
b0 K
b0 J
b0 I
b0 H
b0 G
b0 F
b0 E
b0 D
b101111101100 c
1Q
1#
1s
1P
1%
#241000
0Q
0#
#242000
b0 K
b0 J
b0 I
b0 H
b0 G
b0 F
b0 E
b0 D
b101111101100 c
1Q
1#
0s
#243000
0Q
0#
0P
0%
#244000
b0 K
b0 J
b0 I
b0 H
b0 G
b0 F
b0 E
b0 D
b101111101100 c
1Q
1#
1s
#245000
0Q
0#
#246000
b0 K
b0 J
b0 I
b0 H
b0 G
b0 F
b0 E
b0 D
b101111101100 c
1Q
1#
0s
1P
1%
#247000
0Q
0#
#248000
b0 K
b0 J
b0 I
b0 H
b0 G
b0 F
b0 E
b0 D
b101111101100 c
1Q
1#
1s
#249000
0Q
0#
0P
0%
#250000
b0 K
b0 J
b0 I
b0 H
b0 G
b0 F
b0 E
b0 D
b101111101100 c
1Q
1#
0s
