sim.vcd
$date
	Sun Jun 18 16:25:59 2023
$end
$version
	Icarus Verilog
$end
$timescale
	1ps
$end
$scope module gmii_test $end
$scope module transmit $end
$scope module encapsulation $end
$var wire 8 ! GMII_d [7:0] $end
$var wire 2 " bf_out_buffer_ready [1:0] $end
$var wire 1 # clk $end
$var wire 8 $ crc_data_in [7:0] $end
$var wire 1 % eth_tx_clk $end
$var wire 1 & eth_tx_en $end
$var wire 8 ' ff_out_data_in [7:0] $end
$var wire 1 ( rst $end
$var wire 1 ) data_out_en $end
$var wire 32 * crc_check [31:0] $end
$var reg 1 + GMII_tx_dv $end
$var reg 1 , GMII_tx_er $end
$var reg 1 - bf_in_pct_txed $end
$var reg 1 . bf_in_r_en $end
$var reg 16 / byte_count [15:0] $end
$var reg 1 0 crc_lsb $end
$var reg 32 1 crc_res [31:0] $end
$var reg 8 2 data_out [7:0] $end
$var reg 5 3 intr_pct_gap [4:0] $end
$var reg 16 4 len_payload [15:0] $end
$var reg 1 5 rst_crc $end
$var reg 4 6 state_reg [3:0] $end
$var reg 1 7 updatecrc $end
$scope function reflect_byte $end
$upscope $end
$scope module crc_mod $end
$var wire 1 % clk $end
$var wire 1 0 crc_lsb $end
$var wire 8 8 data [7:0] $end
$var wire 8 9 data_2 [7:0] $end
$var wire 32 : mytest [31:0] $end
$var wire 32 ; result [31:0] $end
$var wire 1 5 rst $end
$var wire 1 < strt $end
$var wire 1 7 updatecrc $end
$var reg 12 = bit_n [11:0] $end
$var reg 12 > bit_n_t [11:0] $end
$var reg 12 ? byte_count [11:0] $end
$var reg 32 @ crc [31:0] $end
$var reg 32 A crc_acc [31:0] $end
$var reg 32 B crc_acc_n [31:0] $end
$var reg 8 C data_buf [7:0] $end
$var reg 32 D my_test_3_crc_acc_n [31:0] $end
$var reg 32 E mytest_2 [31:0] $end
$var reg 32 F nresult [31:0] $end
$var reg 12 G payload_len [11:0] $end
$scope function crc_bit_updt $end
$upscope $end
$scope function reflect_byte $end
$upscope $end
$scope function reflectcrc $end
$upscope $end
$upscope $end
$upscope $end
$upscope $end
$upscope $end
$scope module gmii_test $end
$scope module transmit $end
$scope module async_fifo $end
$scope module async_bram $end
$var reg 8 H \data_regs[0] [7:0] $end
$upscope $end
$upscope $end
$upscope $end
$upscope $end
$scope module gmii_test $end
$scope module transmit $end
$scope module async_fifo $end
$scope module async_bram $end
$var reg 8 I \data_regs[1] [7:0] $end
$upscope $end
$upscope $end
$upscope $end
$upscope $end
$scope module gmii_test $end
$scope module transmit $end
$scope module async_fifo $end
$scope module async_bram $end
$var reg 8 J \data_regs[2] [7:0] $end
$upscope $end
$upscope $end
$upscope $end
$upscope $end
$scope module gmii_test $end
$scope module transmit $end
$scope module async_fifo $end
$scope module async_bram $end
$var reg 8 K \data_regs[3] [7:0] $end
$upscope $end
$upscope $end
$upscope $end
$upscope $end
$scope module gmii_test $end
$scope module transmit $end
$scope module async_fifo $end
$scope module async_bram $end
$var reg 8 L \data_regs[4] [7:0] $end
$upscope $end
$upscope $end
$upscope $end
$upscope $end
$scope module gmii_test $end
$scope module transmit $end
$scope module async_fifo $end
$scope module async_bram $end
$var reg 8 M \data_regs[5] [7:0] $end
$upscope $end
$upscope $end
$upscope $end
$upscope $end
$scope module gmii_test $end
$scope module transmit $end
$scope module async_fifo $end
$scope module async_bram $end
$var reg 8 N \data_regs[6] [7:0] $end
$upscope $end
$upscope $end
$upscope $end
$upscope $end
$scope module gmii_test $end
$scope module transmit $end
$scope module async_fifo $end
$scope module async_bram $end
$var reg 8 O \data_regs[7] [7:0] $end
$upscope $end
$upscope $end
$upscope $end
$upscope $end
$scope module gmii_test $end
$scope module transmit $end
$var wire 1 P buf_w_en $end
$var wire 8 Q data_in [7:0] $end
$var wire 1 ( eth_rst $end
$var wire 1 % eth_tx_clk $end
$var wire 1 & eth_tx_en $end
$var wire 1 R fifo_nrst $end
$var wire 1 S pct_qued $end
$var wire 1 T r_clk $end
$var wire 1 # sys_clk $end
$var wire 1 U w_clk $end
$var wire 8 V buf_data_out [7:0] $end
$var wire 2 W bf_out_buffer_ready [1:0] $end
$var wire 1 . bf_in_r_en $end
$var wire 1 - bf_in_pct_txed $end
$scope module async_fifo $end
$var wire 1 R arst_n $end
$var wire 8 X data_in [7:0] $end
$var wire 1 Y full $end
$var wire 1 T rclk $end
$var wire 1 P w_en $end
$var wire 1 # wclk $end
$var wire 13 Z wrt_ptr [12:0] $end
$var wire 1 [ wr_srstn $end
$var wire 13 \ read_ptr [12:0] $end
$var wire 1 ] rd_srstn $end
$var wire 1 . r_en $end
$var wire 1 ^ full_gen $end
$var wire 1 _ empt $end
$var wire 8 ` data_out [7:0] $end
$scope module async_bram $end
$var wire 8 a data_in [7:0] $end
$var wire 1 Y full $end
$var wire 1 T rd_clk $end
$var wire 1 # wr_clk $end
$var wire 1 P wr_en $end
$var wire 13 b wrt_ptr [12:0] $end
$var wire 1 [ wr_srstn $end
$var wire 12 c w_ptr [11:0] $end
$var wire 13 d read_ptr [12:0] $end
$var wire 1 . rd_en $end
$var wire 12 e r_ptr [11:0] $end
$var wire 8 f data_out [7:0] $end
$scope begin $ivl_for_loop2 $end
$var integer 32 g i [31:0] $end
$upscope $end
$upscope $end
$scope module empt_gen $end
$var wire 13 h wr_pointer [12:0] $end
$var wire 13 i rd_pointer [12:0] $end
$var wire 1 ^ full $end
$var wire 1 _ empty $end
$upscope $end
$scope module rd_pointer $end
$var wire 1 _ empty $end
$var wire 1 T rclk $end
$var wire 1 j rd_ready $end
$var wire 1 ] rd_srstn $end
$var wire 1 . rd_en $end
$var reg 13 k read_ptr [12:0] $end
$upscope $end
$scope module rd_rst_scnch_m $end
$var wire 1 T clk $end
$var wire 1 R n_as_signal $end
$var reg 1 l hold $end
$var reg 1 ] n_s_signal $end
$upscope $end
$scope module wr_pointer $end
$var wire 1 Y full $end
$var wire 1 # wclk $end
$var wire 1 P wr_en $end
$var wire 1 m wr_ready $end
$var wire 1 [ wr_srstn $end
$var reg 13 n wrt_ptr [12:0] $end
$upscope $end
$scope module wr_rst_scnch_m $end
$var wire 1 # clk $end
$var wire 1 R n_as_signal $end
$var reg 1 o hold $end
$var reg 1 [ n_s_signal $end
$upscope $end
$scope begin $ivl_for_loop0 $end
$var integer 32 p i [31:0] $end
$upscope $end
$upscope $end
$scope module buf_ready $end
$var wire 1 S bf_in_pct_qued $end
$var wire 1 # eth_tx_clk $end
$var wire 1 ( rst $end
$var wire 1 - bf_in_pct_txed $end
$var reg 2 q bf_out_buffer_ready [1:0] $end
$upscope $end
$scope module encapsulation $end
$scope function reflect_byte $end
$upscope $end
$scope module crc_mod $end
$scope function crc_bit_updt $end
$upscope $end
$scope function reflect_byte $end
$upscope $end
$scope function reflectcrc $end
$upscope $end
$upscope $end
$upscope $end
$upscope $end
$upscope $end
$scope module gmii_test $end
$var wire 1 r adr_err $end
$var wire 2 s bf_out_buffer_ready [1:0] $end
$var wire 1 P buf_w_en $end
$var wire 1 t buffer_full $end
$var wire 8 u data_in [7:0] $end
$var wire 1 v eth_rst $end
$var wire 1 w eth_rx_clk $end
$var wire 1 % eth_tx_clk $end
$var wire 1 & eth_tx_en $end
$var wire 8 x ff_out_data_in [7:0] $end
$var wire 1 y len_err $end
$var wire 1 z ncrc_err $end
$var wire 1 S pct_qued $end
$var wire 1 ( rst $end
$var wire 1 # sys_clk $end
$var reg 8 { GMII_tx_d [7:0] $end
$var reg 1 | GMII_tx_dv $end
$var reg 1 } GMII_tx_er $end
$var reg 1 ~ bf_in_r_en $end
$scope module decapsulation $end
$var wire 1 w clk $end
$var wire 1 !" crc_lsb $end
$var wire 1 "" eth_tx_clk $end
$var wire 8 #" gmii_data_in [7:0] $end
$var wire 1 | gmii_dv $end
$var wire 1 $" gmii_en $end
$var wire 1 } gmii_er $end
$var wire 1 %" rst $end
$var wire 1 &" rst_crc $end
$var wire 1 '" updatecrc $end
$var wire 1 (" wrong_addr $end
$var wire 1 )" data_out_en $end
$var wire 32 *" crc_check [31:0] $end
$var wire 1 +" cont_stages $end
$var reg 1 ," adr_err $end
$var reg 1 -" buffer_full $end
$var reg 14 ." byte_count [13:0] $end
$var reg 80 /" data_buf [79:0] $end
$var reg 32 0" data_crc [31:0] $end
$var reg 16 1" data_len [15:0] $end
$var reg 48 2" dest_addr [47:0] $end
$var reg 8 3" gmii_buf [7:0] $end
$var reg 1 4" len_err $end
$var reg 16 5" len_payload [15:0] $end
$var reg 1 6" ncrc_err $end
$var reg 1 7" rst_crc_reg $end
$var reg 48 8" source_addr [47:0] $end
$var reg 4 9" state_reg [3:0] $end
$var reg 1 :" updatecrc_reg $end
$scope module crc_mod $end
$var wire 1 "" clk $end
$var wire 1 !" crc_lsb $end
$var wire 8 ;" data [7:0] $end
$var wire 8 <" data_2 [7:0] $end
$var wire 32 =" mytest [31:0] $end
$var wire 32 >" result [31:0] $end
$var wire 1 &" rst $end
$var wire 1 ?" strt $end
$var wire 1 '" updatecrc $end
$var reg 12 @" bit_n [11:0] $end
$var reg 12 A" bit_n_t [11:0] $end
$var reg 12 B" byte_count [11:0] $end
$var reg 32 C" crc [31:0] $end
$var reg 32 D" crc_acc [31:0] $end
$var reg 32 E" crc_acc_n [31:0] $end
$var reg 8 F" data_buf [7:0] $end
$var reg 32 G" my_test_3_crc_acc_n [31:0] $end
$var reg 32 H" mytest_2 [31:0] $end
$var reg 32 I" nresult [31:0] $end
$var reg 12 J" payload_len [11:0] $end
$scope function crc_bit_updt $end
$upscope $end
$scope function reflect_byte $end
$upscope $end
$scope function reflectcrc $end
$upscope $end
$upscope $end
$upscope $end
$scope module transmit $end
$scope module async_fifo $end
$scope module async_bram $end
$scope begin $ivl_for_loop2 $end
$upscope $end
$upscope $end
$scope module empt_gen $end
$upscope $end
$scope module rd_pointer $end
$upscope $end
$scope module rd_rst_scnch_m $end
$upscope $end
$scope module wr_pointer $end
$upscope $end
$scope module wr_rst_scnch_m $end
$upscope $end
$scope begin $ivl_for_loop0 $end
$upscope $end
$upscope $end
$scope module buf_ready $end
$upscope $end
$scope module encapsulation $end
$scope function reflect_byte $end
$upscope $end
$scope module crc_mod $end
$scope function crc_bit_updt $end
$upscope $end
$scope function reflect_byte $end
$upscope $end
$scope function reflectcrc $end
$upscope $end
$upscope $end
$upscope $end
$upscope $end
$upscope $end
$enddefinitions $end
#0
$dumpvars
b10111101011 J"
b0 I"
bx H"
b11111111111111111111111111111111 G"
b0 F"
b11111111111111111111111111111111 E"
b11111111111111111111111111111111 D"
b100110000010001110110110111 C"
b0 B"
b0 A"
b0 @"
z?"
b0 >"
b0 ="
b0z <"
b0z ;"
0:"
b0 9"
bx 8"
17"
x6"
b0 5"
x4"
bx 3"
bx 2"
bx 1"
bx 0"
bx /"
b0 ."
x-"
x,"
x+"
b0 *"
1)"
0("
0'"
1&"
z%"
1$"
bx #"
z""
z!"
x~
x}
x|
bx {
zz
zy
bz x
1w
zv
bz u
zt
bz s
zr
b0 q
b1000 p
0o
bx n
0m
0l
bx k
xj
bx i
bx h
b0 g
bx f
bx e
bx d
bx c
bx b
bz a
bx `
x_
x^
x]
bx \
x[
bx Z
xY
bz X
b0 W
bx V
1U
1T
0S
zR
bz Q
0P
bx O
bx N
bx M
bx L
bx K
bx J
bx I
bx H
b10111101011 G
b0 F
bx E
b11111111111111111111111111111111 D
b0 C
b11111111111111111111111111111111 B
b11111111111111111111111111111111 A
b100110000010001110110110111 @
b0 ?
b0 >
b0 =
z<
b0 ;
b0 :
b0 9
b0 8
07
b0 6
15
b0 4
b0 3
b0 2
b1111 1
00
b0 /
x.
x-
x,
0+
b0 *
0)
z(
bx '
z&
1%
b0 $
1#
b0 "
b0 !
$end
#1000
0U
0#
#2000
1U
1#
0T
0%
#3000
0U
0#
0w
#4000
1U
1#
1T
1%
#5000
0U
0#
#6000
1U
1#
0T
0%
1w
#7000
0U
0#
#8000
1U
1#
1T
1%
#9000
0U
0#
0w
#10000
0j
1l
0]
1o
0[
0R
1U
1#
0T
0%
1(
#11000
0U
0#
#12000
0Y
0^
b0 '
b0 V
b0 `
b0 f
1_
b0 e
b0 O
b0 N
b0 M
b0 L
b0 K
b0 J
b0 I
b0 H
b0 \
b0 d
b0 i
b0 k
0-
b0 c
b101111101100 g
b0 Z
b0 b
b0 h
b0 n
1U
1#
1T
1%
1w
#13000
0U
0#
#14000
b0 O
b0 N
b0 M
b0 L
b0 K
b0 J
b0 I
b0 H
b101111101100 g
1U
1#
0T
0%
#15000
0U
0#
0w
#16000
1R
0(
b0 O
b0 N
b0 M
b0 L
b0 K
b0 J
b0 I
b0 H
b101111101100 g
1U
1#
1T
1%
#17000
0U
0#
#18000
b0 O
b0 N
b0 M
b0 L
b0 K
b0 J
b0 I
b0 H
0o
b101111101100 g
1U
1#
0T
0%
1w
#19000
0U
0#
#20000
b0 O
b0 N
b0 M
b0 L
b0 K
b0 J
b0 I
b0 H
1[
0l
b101111101100 g
1U
1#
1T
1%
#21000
0U
0#
0w
#22000
1U
1#
0T
0%
#23000
0U
0#
#24000
1]
1U
1#
1T
1%
1w
#25000
0U
0#
#26000
1U
1#
0T
0%
#27000
0U
0#
0w
#28000
1m
b0 Q
b0 X
b0 a
b0 u
1P
1U
1#
1T
1%
#29000
0U
0#
#30000
b11000111 Q
b11000111 X
b11000111 a
b11000111 u
b0 H
xj
0_
b1 c
b1 Z
b1 b
b1 h
b1 n
1U
1#
0T
0%
1w
#31000
0U
0#
#32000
b1000010 Q
b1000010 X
b1000010 a
b1000010 u
b11000111 I
b10 c
b10 Z
b10 b
b10 h
b10 n
1U
1#
1T
1%
#33000
0U
0#
0w
#34000
b1100101 Q
b1100101 X
b1100101 a
b1100101 u
b1000010 J
b11 c
b11 Z
b11 b
b11 h
b11 n
1U
1#
0T
0%
#35000
0U
0#
#36000
b1101110 Q
b1101110 X
b1101110 a
b1101110 u
b1100101 K
b100 c
b100 Z
b100 b
b100 h
b100 n
1U
1#
1T
1%
1w
#37000
0U
0#
#38000
b1101001 Q
b1101001 X
b1101001 a
b1101001 u
b1101110 L
b101 c
b101 Z
b101 b
b101 h
b101 n
1U
1#
0T
0%
#39000
0U
0#
0w
#40000
b1101101 Q
b1101101 X
b1101101 a
b1101101 u
b1101001 M
b110 c
b110 Z
b110 b
b110 h
b110 n
1U
1#
1T
1%
#41000
0U
0#
#42000
b1000001 Q
b1000001 X
b1000001 a
b1000001 u
b1101101 N
b111 c
b111 Z
b111 b
b111 h
b111 n
1U
1#
0T
0%
1w
#43000
0U
0#
#44000
b1100100 Q
b1100100 X
b1100100 a
b1100100 u
b1000001 O
b1000 c
b1000 Z
b1000 b
b1000 h
b1000 n
1U
1#
1T
1%
#45000
0U
0#
0w
#46000
b11000100 Q
b11000100 X
b11000100 a
b11000100 u
b1001 c
b1001 Z
b1001 b
b1001 h
b1001 n
1U
1#
0T
0%
#47000
0U
0#
#48000
b10110001 Q
b10110001 X
b10110001 a
b10110001 u
b1010 c
b1010 Z
b1010 b
b1010 h
b1010 n
1U
1#
1T
1%
1w
#49000
0U
0#
#50000
b1101101 Q
b1101101 X
b1101101 a
b1101101 u
b1011 c
b1011 Z
b1011 b
b1011 h
b1011 n
1U
1#
0T
0%
#51000
0U
0#
0w
#52000
b1000101 Q
b1000101 X
b1000101 a
b1000101 u
b1100 c
b1100 Z
b1100 b
b1100 h
b1100 n
1U
1#
1T
1%
#53000
0U
0#
#54000
b1101110 Q
b1101110 X
b1101110 a
b1101110 u
b1101 c
b1101 Z
b1101 b
b1101 h
b1101 n
1U
1#
0T
0%
1w
#55000
0U
0#
#56000
b1100101 Q
b1100101 X
b1100101 a
b1100101 u
b1110 c
b1110 Z
b1110 b
b1110 h
b1110 n
1U
1#
1T
1%
#57000
0U
0#
0w
#58000
b1110011 Q
b1110011 X
b1110011 a
b1110011 u
b1111 c
b1111 Z
b1111 b
b1111 h
b1111 n
1U
1#
0T
0%
#59000
0U
0#
#60000
b1110110 Q
b1110110 X
b1110110 a
b1110110 u
b10000 c
b10000 Z
b10000 b
b10000 h
b10000 n
1U
1#
1T
1%
1w
#61000
0U
0#
#62000
b1100101 Q
b1100101 X
b1100101 a
b1100101 u
b10001 c
b10001 Z
b10001 b
b10001 h
b10001 n
1U
1#
0T
0%
#63000
0U
0#
0w
#64000
b1000010 Q
b1000010 X
b1000010 a
b1000010 u
b10010 c
b10010 Z
b10010 b
b10010 h
b10010 n
1U
1#
1T
1%
#65000
0U
0#
#66000
b1110101 Q
b1110101 X
b1110101 a
b1110101 u
b10011 c
b10011 Z
b10011 b
b10011 h
b10011 n
1U
1#
0T
0%
1w
#67000
0U
0#
#68000
b1000101 Q
b1000101 X
b1000101 a
b1000101 u
b10100 c
b10100 Z
b10100 b
b10100 h
b10100 n
1U
1#
1T
1%
#69000
0U
0#
0w
#70000
b1110100 Q
b1110100 X
b1110100 a
b1110100 u
b10101 c
b10101 Z
b10101 b
b10101 h
b10101 n
1U
1#
0T
0%
#71000
0U
0#
#72000
b1101000 Q
b1101000 X
b1101000 a
b1101000 u
b10110 c
b10110 Z
b10110 b
b10110 h
b10110 n
1U
1#
1T
1%
1w
#73000
0U
0#
#74000
b1100101 Q
b1100101 X
b1100101 a
b1100101 u
b10111 c
b10111 Z
b10111 b
b10111 h
b10111 n
1U
1#
0T
0%
#75000
0U
0#
0w
#76000
b1110010 Q
b1110010 X
b1110010 a
b1110010 u
b11000 c
b11000 Z
b11000 b
b11000 h
b11000 n
1U
1#
1T
1%
#77000
0U
0#
#78000
b1101110 Q
b1101110 X
b1101110 a
b1101110 u
b11001 c
b11001 Z
b11001 b
b11001 h
b11001 n
1U
1#
0T
0%
1w
#79000
0U
0#
#80000
b1100101 Q
b1100101 X
b1100101 a
b1100101 u
b11010 c
b11010 Z
b11010 b
b11010 h
b11010 n
1U
1#
1T
1%
#81000
0U
0#
0w
#82000
b1110100 Q
b1110100 X
b1110100 a
b1110100 u
b11011 c
b11011 Z
b11011 b
b11011 h
b11011 n
1U
1#
0T
0%
#83000
0U
0#
#84000
b1010000 Q
b1010000 X
b1010000 a
b1010000 u
b11100 c
b11100 Z
b11100 b
b11100 h
b11100 n
1U
1#
1T
1%
1w
#85000
0U
0#
#86000
b1100001 Q
b1100001 X
b1100001 a
b1100001 u
b11101 c
b11101 Z
b11101 b
b11101 h
b11101 n
1U
1#
0T
0%
#87000
0U
0#
0w
#88000
b1100011 Q
b1100011 X
b1100011 a
b1100011 u
b11110 c
b11110 Z
b11110 b
b11110 h
b11110 n
1U
1#
1T
1%
#89000
0U
0#
#90000
b1101011 Q
b1101011 X
b1101011 a
b1101011 u
b11111 c
b11111 Z
b11111 b
b11111 h
b11111 n
1U
1#
0T
0%
1w
#91000
0U
0#
#92000
b1100101 Q
b1100101 X
b1100101 a
b1100101 u
b100000 c
b100000 Z
b100000 b
b100000 h
b100000 n
1U
1#
1T
1%
#93000
0U
0#
0w
#94000
b1110100 Q
b1110100 X
b1110100 a
b1110100 u
b100001 c
b100001 Z
b100001 b
b100001 h
b100001 n
1U
1#
0T
0%
#95000
0U
0#
#96000
b1101001 Q
b1101001 X
b1101001 a
b1101001 u
b100010 c
b100010 Z
b100010 b
b100010 h
b100010 n
1U
1#
1T
1%
1w
#97000
0U
0#
#98000
b1010000 Q
b1010000 X
b1010000 a
b1010000 u
b100011 c
b100011 Z
b100011 b
b100011 h
b100011 n
1U
1#
0T
0%
#99000
0U
0#
0w
#100000
b1100001 Q
b1100001 X
b1100001 a
b1100001 u
b100100 c
b100100 Z
b100100 b
b100100 h
b100100 n
1U
1#
1T
1%
#101000
0U
0#
#102000
b1111001 Q
b1111001 X
b1111001 a
b1111001 u
b100101 c
b100101 Z
b100101 b
b100101 h
b100101 n
1U
1#
0T
0%
1w
#103000
0U
0#
#104000
b1101100 Q
b1101100 X
b1101100 a
b1101100 u
b100110 c
b100110 Z
b100110 b
b100110 h
b100110 n
1U
1#
1T
1%
#105000
0U
0#
0w
#106000
b1101111 Q
b1101111 X
b1101111 a
b1101111 u
b100111 c
b100111 Z
b100111 b
b100111 h
b100111 n
1U
1#
0T
0%
#107000
0U
0#
#108000
b1100001 Q
b1100001 X
b1100001 a
b1100001 u
b101000 c
b101000 Z
b101000 b
b101000 h
b101000 n
1U
1#
1T
1%
1w
#109000
0U
0#
#110000
b1100100 Q
b1100100 X
b1100100 a
b1100100 u
b101001 c
b101001 Z
b101001 b
b101001 h
b101001 n
1U
1#
0T
0%
#111000
0U
0#
0w
#112000
b1110101 Q
b1110101 X
b1110101 a
b1110101 u
b101010 c
b101010 Z
b101010 b
b101010 h
b101010 n
1U
1#
1T
1%
#113000
0U
0#
#114000
b1000111 Q
b1000111 X
b1000111 a
b1000111 u
b101011 c
b101011 Z
b101011 b
b101011 h
b101011 n
1U
1#
0T
0%
1w
#115000
0U
0#
#116000
b11000011 Q
b11000011 X
b11000011 a
b11000011 u
b101100 c
b101100 Z
b101100 b
b101100 h
b101100 n
1U
1#
1T
1%
#117000
0U
0#
0w
#118000
b10110110 Q
b10110110 X
b10110110 a
b10110110 u
b101101 c
b101101 Z
b101101 b
b101101 h
b101101 n
1U
1#
0T
0%
#119000
0U
0#
#120000
b1101110 Q
b1101110 X
b1101110 a
b1101110 u
b101110 c
b101110 Z
b101110 b
b101110 h
b101110 n
1U
1#
1T
1%
1w
#121000
0U
0#
#122000
b1100100 Q
b1100100 X
b1100100 a
b1100100 u
b101111 c
b101111 Z
b101111 b
b101111 h
b101111 n
1U
1#
0T
0%
#123000
0U
0#
0w
#124000
b1100101 Q
b1100101 X
b1100101 a
b1100101 u
b110000 c
b110000 Z
b110000 b
b110000 h
b110000 n
1U
1#
1T
1%
#125000
0U
0#
#126000
b1110010 Q
b1110010 X
b1110010 a
b1110010 u
b110001 c
b110001 Z
b110001 b
b110001 h
b110001 n
1U
1#
0T
0%
1w
#127000
0U
0#
#128000
b1101001 Q
b1101001 X
b1101001 a
b1101001 u
b110010 c
b110010 Z
b110010 b
b110010 h
b110010 n
1U
1#
1T
1%
#129000
0U
0#
0w
#130000
b1101100 Q
b1101100 X
b1101100 a
b1101100 u
b110011 c
b110011 Z
b110011 b
b110011 h
b110011 n
1U
1#
0T
0%
#131000
0U
0#
#132000
b1101001 Q
b1101001 X
b1101001 a
b1101001 u
b110100 c
b110100 Z
b110100 b
b110100 h
b110100 n
1U
1#
1T
1%
1w
#133000
0U
0#
#134000
b1111001 Q
b1111001 X
b1111001 a
b1111001 u
b110101 c
b110101 Z
b110101 b
b110101 h
b110101 n
1U
1#
0T
0%
#135000
0U
0#
0w
#136000
b1101111 Q
b1101111 X
b1101111 a
b1101111 u
b110110 c
b110110 Z
b110110 b
b110110 h
b110110 n
1U
1#
1T
1%
#137000
0U
0#
#138000
1&
1S
b1110010 Q
b1110010 X
b1110010 a
b1110010 u
b110111 c
b110111 Z
b110111 b
b110111 h
b110111 n
1U
1#
0T
0%
1w
#139000
0U
0#
#140000
0m
0P
0S
b1 "
b1 W
b1 q
b111000 c
b111000 Z
b111000 b
b111000 h
b111000 n
b1 3
1U
1#
1T
1%
#141000
0U
0#
0w
#142000
1U
1#
0T
0%
#143000
0U
0#
#144000
b10 3
1U
1#
1T
1%
1w
#145000
0U
0#
#146000
1U
1#
0T
0%
#147000
0U
0#
0w
#148000
b11 3
1U
1#
1T
1%
#149000
0U
0#
#150000
1U
1#
0T
0%
1w
#151000
0U
0#
#152000
b100 3
1U
1#
1T
1%
#153000
0U
0#
0w
#154000
1U
1#
0T
0%
#155000
0U
0#
#156000
b101 3
1U
1#
1T
1%
1w
#157000
0U
0#
#158000
1U
1#
0T
0%
#159000
0U
0#
0w
#160000
b110 3
1U
1#
1T
1%
#161000
0U
0#
#162000
1U
1#
0T
0%
1w
#163000
0U
0#
#164000
b111 3
1U
1#
1T
1%
#165000
0U
0#
0w
#166000
1U
1#
0T
0%
#167000
0U
0#
#168000
b1000 3
1U
1#
1T
1%
1w
#169000
0U
0#
#170000
1U
1#
0T
0%
#171000
0U
0#
0w
#172000
b1001 3
1U
1#
1T
1%
#173000
0U
0#
#174000
1U
1#
0T
0%
1w
#175000
0U
0#
#176000
b1010 3
1U
1#
1T
1%
#177000
0U
0#
0w
#178000
1U
1#
0T
0%
#179000
0U
0#
#180000
b1011 3
1U
1#
1T
1%
1w
#181000
0U
0#
#182000
1U
1#
0T
0%
#183000
0U
0#
0w
#184000
b1100 3
1U
1#
1T
1%
#185000
0U
0#
#186000
1U
1#
0T
0%
1w
#187000
0U
0#
#188000
1+
b101010 !
b101010 9
b101010 $
b101010 8
b101010 2
1)
05
b1 6
1U
1#
1T
1%
#189000
0U
0#
0w
#190000
1U
1#
0T
0%
#191000
0U
0#
#192000
b1 /
1U
1#
1T
1%
1w
#193000
0U
0#
#194000
1U
1#
0T
0%
#195000
0U
0#
0w
#196000
b10 /
1U
1#
1T
1%
#197000
0U
0#
#198000
1U
1#
0T
0%
1w
#199000
0U
0#
#200000
b11 /
1U
1#
1T
1%
#201000
0U
0#
0w
#202000
1U
1#
0T
0%
#203000
0U
0#
#204000
b100 /
1U
1#
1T
1%
1w
#205000
0U
0#
#206000
1U
1#
0T
0%
#207000
0U
0#
0w
#208000
b101 /
1U
1#
1T
1%
#209000
0U
0#
#210000
1U
1#
0T
0%
1w
#211000
0U
0#
#212000
b110 /
1U
1#
1T
1%
#213000
0U
0#
0w
#214000
1U
1#
0T
0%
#215000
0U
0#
#216000
b101011 !
b101011 9
b101011 $
b101011 8
b101011 2
b0 /
b10 6
1U
1#
1T
1%
1w
#217000
0U
0#
#218000
1U
1#
0T
0%
#219000
0U
0#
0w
#220000
b111100000011001000111010100001 E
b1000 >
b1111010100011101100111111000011 D
b10 !
b10 9
b10 $
b10 8
b10 2
17
b111 6
1U
1#
1T
1%
#221000
0U
0#
#222000
1U
1#
0T
0%
1w
#223000
0U
0#
#224000
b1 ?
b111100000011001000111010100001 :
b100101010111001011010001011110 E
b1000 >
b10000101110100101100010101011011 D
b110101 !
b110101 9
b110101 $
b110101 8
b110101 2
b0 =
b1111010100011101100111111000011 B
b1000000 C
b1 /
1U
1#
1T
1%
#225000
0U
0#
0w
#226000
1U
1#
0T
0%
#227000
0U
0#
#228000
b10 ?
b100101010111001011010001011110 :
b1101011010000010110011100110000 E
b1000 >
b11110011000110010111110100101001 D
b101000 !
b101000 9
b101000 $
b101000 8
b101000 2
b10 /
b0 =
b10000101110100101100010101011011 B
b10101100 C
1U
1#
1T
1%
1w
#229000
0U
0#
#230000
1U
1#
0T
0%
#231000
0U
0#
0w
#232000
b11 ?
b1101011010000010110011100110000 :
b11011110110111111011010111010010 E
b1000 >
b10110100010100100000010010000100 D
b11111011 !
b11111011 9
b11111011 $
b11111011 8
b11111011 2
b0 =
b11110011000110010111110100101001 B
b10100 C
b11 /
1U
1#
1T
1%
#233000
0U
0#
#234000
1U
1#
0T
0%
1w
#235000
0U
0#
#236000
b100 ?
b11011110110111111011010111010010 :
b1000010011000110010110110101001 E
b1000 >
b1101010010010110011100110111101 D
b11011101 !
b11011101 9
b11011101 $
b11011101 8
b11011101 2
b100 /
b0 =
b10110100010100100000010010000100 B
b11011111 C
1U
1#
1T
1%
#237000
0U
0#
0w
#238000
1U
1#
0T
0%
#239000
0U
0#
#240000
b101 ?
b1000010011000110010110110101001 :
b11011001100110110101001110000001 E
b1000 >
b1111110001101010010011001100100 D
b1100110 !
b1100110 9
b1100110 $
b1100110 8
b1100110 2
b0 =
b1101010010010110011100110111101 B
b10111011 C
b101 /
1U
1#
1T
1%
1w
#241000
0U
0#
#242000
1U
1#
0T
0%
#243000
0U
0#
0w
#244000
b110 ?
b11011001100110110101001110000001 :
b11010110000000000101001011001011 E
b1000 >
b101100101101011111111110010100 D
b111 !
b111 9
b111 $
b111 8
b111 2
b1000 6
b0 /
b0 =
b1111110001101010010011001100100 B
b1100110 C
1U
1#
1T
1%
#245000
0U
0#
#246000
1U
1#
0T
0%
1w
#247000
0U
0#
#248000
b111 ?
b11010110000000000101001011001011 :
b1011000000101011010100000011 E
b1000 >
b111111010100101011111100101111 D
b100010 !
b100010 9
b100010 $
b100010 8
b100010 2
b0 =
b101100101101011111111110010100 B
b11100000 C
b1 /
1U
1#
1T
1%
#249000
0U
0#
0w
#250000
1U
1#
0T
0%
#251000
0U
0#
#252000
b1000 ?
b1011000000101011010100000011 :
b11101110000010100000100111101001 E
b1000 >
b1101000011011111010111110001000 D
b100111 !
b100111 9
b100111 $
b100111 8
b100111 2
b10 /
b0 =
b111111010100101011111100101111 B
b1000100 C
1U
1#
1T
1%
1w
#253000
0U
0#
#254000
1U
1#
0T
0%
#255000
0U
0#
0w
#256000
b1001 ?
b11101110000010100000100111101001 :
b11010100010110100101000010011011 E
b1000 >
b100110111101011010010111010100 D
b10101100 !
b10101100 9
b10101100 $
b10101100 8
b10101100 2
b0 =
b1101000011011111010111110001000 B
b11100100 C
b11 /
1U
1#
1T
1%
#257000
0U
0#
#258000
1U
1#
0T
0%
1w
#259000
0U
0#
#260000
b1010 ?
b11010100010110100101000010011011 :
b10100100000010101111010001001101 E
b1000 >
b1001101110100001010111111011010 D
b11011011 !
b11011011 9
b11011011 $
b11011011 8
b11011011 2
b100 /
b0 =
b100110111101011010010111010100 B
b110101 C
1U
1#
1T
1%
#261000
0U
0#
0w
#262000
1U
1#
0T
0%
#263000
0U
0#
#264000
b1011 ?
b10100100000010101111010001001101 :
b11100111000100110100110110000011 E
b1000 >
b111110010011010011011100011000 D
b1100101 !
b1100101 9
b1100101 $
b1100101 8
b1100101 2
b0 =
b1001101110100001010111111011010 B
b11011011 C
b101 /
1U
1#
1T
1%
1w
#265000
0U
0#
#266000
1U
1#
0T
0%
#267000
0U
0#
0w
